ID;QUESTION;ANSWER1;ANSWER2;ANSWER3;ANSWER4;CORRECT_ANSWER
1;Kto sklada zeznanie podatkowe na druku PIT-19A?;nauczyciele;duchowni;rolnicy;wiezniowie;2
2;Z czego wyizolowano opiorfine, substancje o silnym dzialaniu przeciwbolowym i przeciwzapalnym?;z makowin;z ludzkiej sliny;z lisci koki;z lisci wierzby;2
3;Manat karaibski, tak jak afrykanski, z konczyn ma tylko przednie. A manat azerbejdzanski, tak jak turkmenski:;ma i przednie, i tylne;zakrywa cale cialo;jest samotnikiem;zastapil rubla;4
4;zydowskie swieto swiatel, zwane tez Chanuka, trwa osiem dni. Ile swiatecznych swiec plonie osmego dnia na specjalnym swieczniku?;szesc;siedem;osiem;dziesiec;3
5;Kazda barwa skladowa swiatla bialego rozchodzi sie w cialach przezroczystych z inna predkoscia. Najwieksza predkosc ma:;czerwona;pomaranczowa;zolta;fioletowa;1
6;Ktory ssak sie nie spoci?;owca;kon;czlowiek;krolik;4
7;Ile to jest 1111 razy 1111, jesli 1 razy 1 to 1, a 11 razy 11 to 121?;12 321;1 234 321;111 111 111;123 454 321;2
8;Co wedlug Leszka Kolakowskiego jest sklepieniem domu, w ktorym duch ludzki mieszka?;Rozum;Bog;Milosc;Czas;4
9;Rys polski, labedz rostowski, saksonski bocian i wywrotek smolenski to:;rasy golebi;rasy kur;chrzaszcze;akrobacje na deskorolce;1
10;Pletwa grzbietowa nie pruje wody:;dlugoszpar;kosogon;orka;wal grenlandzki;4
