ID;QUESTION;ANSWER1;ANSWER2;ANSWER3;ANSWER4;CORRECT_ANSWER
1;VAT to podatek od towarow i uslug, tak zwany podatek od wartosci:;dodanej;odjetej;pomnozonej;podzielonej;1
2;Ktore narzedzie to grzebien osadzony na stylisku?;siekiera;graca;grabie;lopata;3
3;Ktory to pierwszy biblijny denat?;Kain;Abel;Adam;Noe;2
4;Niejadowity waz.;boa;kobra;mamba;grzechotnik;1
5;Jak nazywa sie nieparzysta plaska kosc czlowieka, ktorej dolna czesc to wyrostek mieczykowaty?;lopatka;zebro;mostek;kosc miedniczna;3
6;Kogo przedstawia wzniesiona w 2010 r. 36-metrowa zelbetowa figura w swiebodzinie?;Jezusa Chrystusa;Jana Pawla II;Fryderyka Chopina;Mikolaja Kopernika;1
7;Rekoczyn Heimlicha stosuje sie w przypadku:;ucieczki z wiezienia;zniewazenia;zadlawienia;ataku histerii;3
8;Shrek, tytulowy bohater cyklu filmow animowanych, mial:;dwie corki i syna;dwoch synow i corke;dwie corki i dwoch synow;trzech synow i dwie corki;2
9;Ile osob widnieje na znaku drogowym, ktory ostrzega o miejscu na drodze czesto uczeszczanym przez dzieci?;jedno;dwie;trzy;cztery;2
10;W jakiej pozycji najczesciej przedstawiany jest Budda?;lotosu;pioruna;drzewa;bohatera;1
